…
# View detailed TF-IDF scores
cluster_desc$cluster_descriptions
#> # A tibble: 83 × 7
#>    section      ngram                ngram_size     n    tf   idf tf_idf
#>    <chr>        <chr>                     <int> <int> <dbl> <dbl>  <dbl>
#>  1 Introduction learning                      1     2  0.08  1.61 0.129 
#>  2 Introduction bagging                       1     1  0.04  2.30 0.0921
#>  3 Introduction bagging predictors            2     1  0.04  2.30 0.0921
#>  4 Introduction belmont                       1     1  0.04  2.30 0.0921
#>  5 Introduction belmont wadsworth             2     1  0.04  2.30 0.0921
#>  6 Introduction data                          1     1  0.04  2.30 0.0921
#>  7 Introduction data mining                   2     1  0.04  2.30 0.0921
#>  8 Introduction elements                      1     1  0.04  2.30 0.0921
#>  9 Introduction elements statistical          2     1  0.04  2.30 0.0921
#> 10 Introduction inference                     1     1  0.04  2.30 0.0921
#> # ℹ 73 more rows
```
…
